Water Level Model Analysis
…
## Joining, by = "WiscID"

Removed several variables that were duplicated along with ones that have missing values and/or are not of interest initially.

dat

## # A tibble: 40 x 62
##    WiscID slope   WBIC LakeName US_L3NAME ECO_LANDSC HUC12_CODE   lat  long
##     <int> <dbl>  <dbl> <chr>    <chr>     <chr>      <chr>      <dbl> <dbl>
##  1     40 0.901 102100 Bughs L North Ce Central S 040302010  44.1 -89.3
##  2     48 0.930 103900 Irogami North Ce Central S 040302010  44.1 -89.2
##  3     49 0.843 103900 Irogami North Ce Central S 040302010  44.1 -89.2
##  4     59 3.86  106500 Parker  North Ce Central S 040302010  43.8 -89.6
##  5     67 2.56  107900 Big Sil North Ce Central S 040302010  44.1 -89.2
##  6     70 1.36  117400 Witters North Ce Central S 040302010  44.0 -89.3
##  7    103 2.96  182300 Twin La North Ce Central S 040302022  44.2 -89.1
##  8    111 1.65  186400 Gilbert North Ce Central S 040302022  44.2 -89.2
##  9    114 1.47  189600 Kusel L North Ce Central S 040302022  44.2 -89.2
## 10    122 2.28  191100 Long La North Ce Central S 040302022  44.2 -89.1
## #  with 30 more rows, and 53 more variables: SHAPE_LEN <dbl>, Area <int>,
## #   WatershedA <int>, MaxDepth <int>, W_PERM <dbl>, W_SLOPE <dbl>,
## #   W_DARCY <dbl>, W_BD_203 <dbl>, W_BR_1 <dbl>, W_QG_1 <dbl>,
## #   TRW_AREA <dbl>, W_LU06_11 <dbl>, W_LU06_21 <dbl>, W_LU06_22 <dbl>,
## #   W_LU06_41 <dbl>, W_LU06_42 <dbl>, W_LU06_43 <dbl>, W_LU06_52 <dbl>,
## #   W_LU06_71 <dbl>, W_LU06_81 <dbl>, W_LU06_82 <dbl>, W_LU06_90 <dbl>,
## #   W_LU06_95 <dbl>, R_AREA <dbl>, R_PERM <dbl>, R_SLOPE <dbl>,
## #   R_DARCY <dbl>, R_LU06_11 <dbl>, R_LU06_21 <dbl>, R_LU06_41 <dbl>,
## #   R_LU06_42 <dbl>, R_LU06_43 <dbl>, R_LU06_90 <dbl>, R_LU06_95 <dbl>,
…
